{
  "base": "semantic\\",
  "paths": {
    "source": {
      "config": "src/theme.config",
      "definitions": "src/definitions/",
      "site": "src/site/",
      "themes": "src/themes/"
    },
    "output": {
      "packaged": "out\\",
      "uncompressed": "out\\components\\",
      "compressed": "out\\components\\",
      "themes": "out\\themes\\"
    },
    "clean": "dist/"
  },
  "permission": false,
  "autoInstall": false,
  "rtl": false,
  "components": ["reset", "site", "button", "container", "divider", "emoji", "flag", "image", "input", "label", "list", "loader", "rail", "segment", "step", "breadcrumb", "form", "grid", "menu", "message", "table", "ad", "card", "comment", "feed", "item", "statistic", "accordion", "calendar", "checkbox", "dimmer", "dropdown", "embed", "modal", "nag", "placeholder", "popup", "progress", "slider", "rating", "search", "shape", "sidebar", "sticky", "tab", "text", "toast", "transition", "api", "form", "state", "visibility"],
  "version": "2.8.7"
}
